1619,@~Öà@CAFE@BACATION,(X5ú¥¢)
út,Kp,ã(Å²«),ÁïÅ,ãiÅj,¿,óüàz,c,ª
"","Jzc","","","2,741","2,741","","",""
"2015/03/27","Ôi","-2,640","","","","","","2015/04"
"2015/03/27","","1,000","","","","","","2015/04"
"2015/04/06","","1,850","","","","","","2015/04"
"2015/04/06","","1,320","","","","","","2015/04"
"2015/04/25","##ÁïÅ##","1,530","122","1,652","4,393","","4,393","2015/04"
